module bitbucket.org/ramazan-acar-getir/golang-samples

go 1.16

require (
	github.com/golang/protobuf v1.5.2 // indirect
	golang.org/x/net v0.0.0-20190311183353-d8887717615a
	google.golang.org/grpc v1.38.0
	google.golang.org/protobuf v1.26.0
)
